Cod;Nome/Razão Social*;CNPJ*;IE;Nome Curto;Responsavel;Qtd. Alunos;Logradouro;Número;Complemento;Cep;Bairro;Cidade;Estado;Email;Telefone;Celular
1;O2 Studium - Poços de Caldas MG;09.046.225/0001-53;;O2 STUDIUM;Nome do Responsavel;10;Praça Monsenhor Faria de Castro;56;;37701049;Centro;Poços de Caldas;Minas Gerais;rafappocos@gmail.com;(17)9999-9999;(21)4444-4444
2;Academia XFF - Xtreme Fight & Fitness - Londrina PR;21.725.332/0001-03;90696935-10;Fugiwara & Marinho;;20;Rua Bélgica;1013;;86046280;Jardim Igapó;Londrina;Paraná;xtremelondrina@gmail.com;(18)9999-9999;(43) 9996.9697
